E:\eclipse-workspace\bts\src\main\java\com\plusitsolution\bts\MoneyCardDomain.java
E:\eclipse-workspace\bts\src\main\java\com\plusitsolution\bts\Ticket.java
E:\eclipse-workspace\bts\src\main\java\com\plusitsolution\bts\nameStation.java
E:\eclipse-workspace\bts\src\main\java\com\plusitsolution\bts\BTS.java
